autostart = False
version = 0.8.6
[127.0.0.1:7200]
    workingdir = working
    udp = 10001
    [[3640]]
        image = C:\Users\QueriasTuSaber\Desktop\c3640-ik9o3s-mz124-13.image
        idlepc = 0x605a0434
        sparsemem = True
        ghostios = True
        chassis = 3640
    [[ROUTER R1]]
        model = 3640
        console = 2106
        aux = 2506
        cnfg = configs\R1.cfg
        slot0 = NM-1FE-TX
        slot1 = NM-1FE-TX
        f1/0 = R2 f1/0
        x = -234.0
        y = -209.0
        z = 1.0
    [[ROUTER R2]]
        model = 3640
        console = 2107
        aux = 2507
        cnfg = configs\R2.cfg
        slot0 = NM-1FE-TX
        slot1 = NM-16ESW
        f1/0 = R1 f1/0
        f1/1 = R3 f1/1
        f1/3 = ProdA e1
        symbol = ethernet_switch
        x = -271.0
        y = -53.0
        z = 1.0
        hx = 9.5
        hy = -25.0
    [[ROUTER R3]]
        model = 3640
        console = 2108
        aux = 2508
        cnfg = configs\R3.cfg
        slot0 = NM-1FE-TX
        slot1 = NM-16ESW
        f1/1 = R2 f1/1
        f1/3 = nagios e1
        symbol = ethernet_switch
        x = 144.0
        y = -57.0
        z = 1.0
[vbox 127.0.0.1:11525]
    workingdir = working
    udp = 20900
    [[VBoxDevice]]
        image = ProdA
        nics = 2
    [[VBOX nagios]]
        image = Nagios
        e1 = R3 f1/3
        x = 110.5
        y = 70.5
        z = 1.0
    [[VBOX ProdA]]
        e1 = R2 f1/3
        x = -357.5
        y = 45.5
        z = 1.0
[GNS3-DATA]
    configs = configs
    workdir = working
    [[NOTE 1]]
        text = "Vlan 20\n"
        x = 157.0
        y = 163.0
    [[NOTE 2]]
        text = "Vlan 10"
        x = -318.0
        y = 181.0
    [[NOTE 3]]
        text = "e1"
        x = 47.3366766192
        y = -7.64664220218
        interface = ProdA e1
    [[NOTE 4]]
        text = "e1"
        x = 42.5241890985
        y = -9.22357980505
        interface = nagios e1
    [[NOTE 5]]
        text = "f1/3"
        x = 25.4758109015
        y = 54.7235798051
        interface = R3 f1/3
    [[NOTE 6]]
        text = "f1/1"
        x = -4.4981420949
        y = 16.3855242612
        interface = R3 f1/1
    [[NOTE 7]]
        text = "f1/3"
        x = 20.6633233808
        y = 53.1466422022
        interface = R2 f1/3
    [[NOTE 8]]
        text = "f1/1"
        x = 75.4981420949
        y = 15.6144757388
        interface = R2 f1/1
    [[NOTE 9]]
        text = "f1/0"
        x = 44.4659077169
        y = -22.9822074646
        interface = R2 f1/0
    [[NOTE 10]]
        text = "f1/0"
        x = 24.0340922831
        y = 60.9822074646
        interface = R1 f1/0
